<?xml version='1.0' ?>
<svg width='600' height='400'
    xmlns='http://www.w3.org/2000/svg'>
<g id='uml-diagram:One_20Interface_2c_20Linked'>
<g id='uml-diagram:One_20Interface_2c_20Linked:link-to-classLoader'/>
<rect x='0' y='0' height='400' width='600'
    stroke='none' fill='#fff'/>
</g>
<rect x='266.0' y='3.0' height='44' width='233'    stroke='none' fill='#ccc'/>
<rect x='210.0' y='87.0' height='28' width='152'    stroke='none' fill='#ccc'/>
<rect x='339.0' y='145.0' height='44' width='260'    stroke='none' fill='#ccc'/>
<rect x='455.0' y='239.0' height='28' width='144'    stroke='none' fill='#ccc'/>
<rect x='297.0' y='239.0' height='28' width='138'    stroke='none' fill='#ccc'/>
<rect x='451.0' y='307.0' height='28' width='148'    stroke='none' fill='#ccc'/>
<rect x='8.0' y='35.0' height='28' width='237'    stroke='none' fill='#ccc'/>
<rect x='6.0' y='175.0' height='28' width='240'    stroke='none' fill='#ccc'/>
<rect x='4.0' y='245.0' height='28' width='245'    stroke='none' fill='#ccc'/>
<rect x='3.0' y='371.0' height='28' width='228'    stroke='none' fill='#ccc'/>
<rect x='251.0' y='371.0' height='28' width='234'    stroke='none' fill='#ccc'/>
<path stroke='#000' fill='none' stroke-dasharray='4 5' d='M283.5 84.5 L283.5 44.5'/>
<path stroke='#000' fill='none' d='M466.5 142.5 L466.5 44.5'/>
<path stroke='#000' fill='none' stroke-dasharray='4 5' d='M524.5 236.5 L524.5 216.5 L466.5 216.5 L466.5 186.5'/>
<path stroke='#000' fill='none' d='M494.5 264.5 L494.5 284.5 L283.5 284.5 L283.5 112.5'/>
<path stroke='#000' fill='none' stroke-dasharray='4 5' d='M363.5 236.5 L363.5 216.5 L466.5 216.5 L466.5 186.5'/>
<path stroke='#000' fill='none' d='M363.5 264.5 L363.5 284.5 L283.5 284.5 L283.5 112.5'/>
<path stroke='#000' fill='none' d='M522.5 304.5 L522.5 264.5'/>
<path stroke='#000' fill='none' stroke-dasharray='4 5' d='M123.5 172.5 L123.5 60.5'/>
<path stroke='#000' fill='none' d='M123.5 242.5 L123.5 200.5'/>
<path stroke='#000' fill='none' d='M114.5 368.5 L114.5 348.5 L123.5 348.5 L123.5 270.5'/>
<path stroke='#000' fill='none' d='M365.5 368.5 L365.5 348.5 L123.5 348.5 L123.5 270.5'/>
<path stroke='#000' fill='none' stroke-dasharray='4 5' d='M227.5 112.5 C227.5 165.83333 163.5 102.5 163.5 172.5'/>
<path stroke='#000' fill='none' stroke-dasharray='4 5' d='M472.5 264.5 C472.5 296.71155 405.5 298.5 405.5 368.5'/>
<path stroke='#000' fill='none' stroke-dasharray='4 5' d='M314.5 264.5 C314.5 341.4231 154.5 298.5 154.5 368.5'/>
<g id='class:net.avcompris.binding.Binder_3cU_3e'>
<g id='class:net.avcompris.binding.Binder_3cU_3e:is-interface'/>
<g id='class:net.avcompris.binding.Binder_3cU_3e:is-abstract'/>
<rect x='263.5' y='0.5' height='44' width='233'    stroke='#000' fill='#ffc'/>
<line x1='263.5' y1='22.5' stroke='#000' x2='496.5' y2='22.5'/>
<circle cx='486.0' cy='11.5' r='5.5' stroke='#666'
    stroke-width='1' fill='#fff'/>
<text x='380.5' y='16.5'
 font-size='10pt' text-anchor='middle'
    font-family='Arial' fill='#000'>Binder&lt;U&gt;</text>
<text x='267.5' y='38.5'
 font-size='10pt' text-anchor='start'
    font-family='Arial' fill='#000'>&lt;T&gt; bind(U node, Class&lt;T&gt; clazz): T</text>
</g>
<g id='class:net.avcompris.binding.impl.AbstractBinder_3cU_3e'>
<g id='class:net.avcompris.binding.impl.AbstractBinder_3cU_3e:is-abstract'/>
<g id='class:net.avcompris.binding.impl.AbstractBinder_3cU_3e:interface:net.avcompris.binding.Binder_3cU_3e'/>
<rect x='207.5' y='84.5' height='28' width='152'    stroke='#000' fill='#ffc'/>
<line x1='207.5' y1='106.5' stroke='#000' x2='359.5' y2='106.5'/>
<text x='283.5' y='100.5'
 font-size='10pt' text-anchor='middle'
 font-weight='bold'
    font-style='italic'
    font-family='Arial' fill='#000'>AbstractBinder&lt;U&gt;</text>
</g>
<g id='class:net.avcompris.binding.dom.DomBinder'>
<g id='class:net.avcompris.binding.dom.DomBinder:is-interface'/>
<g id='class:net.avcompris.binding.dom.DomBinder:is-abstract'/>
<g id='class:net.avcompris.binding.dom.DomBinder:interface:net.avcompris.binding.Binder_3cU_3e'/>
<rect x='336.5' y='142.5' height='44' width='260'    stroke='#000' fill='#ffc'/>
<line x1='336.5' y1='164.5' stroke='#000' x2='596.5' y2='164.5'/>
<circle cx='586.0' cy='153.5' r='5.5' stroke='#666'
    stroke-width='1' fill='#fff'/>
<text x='466.5' y='158.5'
 font-size='10pt' text-anchor='middle'
    font-family='Arial' fill='#000'>DomBinder</text>
<text x='340.5' y='180.5'
 font-size='10pt' text-anchor='start'
    font-family='Arial' fill='#000'>&lt;T&gt; bind(org.w3c.dom.Node, Class&lt;T&gt;): T</text>
</g>
<g id='class:net.avcompris.binding.dom.impl.JaxenDomBinder'>
<g id='class:net.avcompris.binding.dom.impl.JaxenDomBinder:interface:net.avcompris.binding.dom.DomBinder'/>
<g id='class:net.avcompris.binding.dom.impl.JaxenDomBinder:superclass:net.avcompris.binding.impl.AbstractBinder_3cU_3e'/>
<rect x='452.5' y='236.5' height='28' width='144'    stroke='#000' fill='#ffc'/>
<line x1='452.5' y1='258.5' stroke='#000' x2='596.5' y2='258.5'/>
<text x='524.5' y='252.5'
 font-size='10pt' text-anchor='middle'
 font-weight='bold'
    font-family='Arial' fill='#000'>JaxenDomBinder</text>
</g>
<g id='class:net.avcompris.binding.dom.impl.JaxpDomBinder'>
<g id='class:net.avcompris.binding.dom.impl.JaxpDomBinder:interface:net.avcompris.binding.dom.DomBinder'/>
<g id='class:net.avcompris.binding.dom.impl.JaxpDomBinder:superclass:net.avcompris.binding.impl.AbstractBinder_3cU_3e'/>
<rect x='294.5' y='236.5' height='28' width='138'    stroke='#000' fill='#ffc'/>
<line x1='294.5' y1='258.5' stroke='#000' x2='432.5' y2='258.5'/>
<text x='363.5' y='252.5'
 font-size='10pt' text-anchor='middle'
 font-weight='bold'
    font-family='Arial' fill='#000'>JaxpDomBinder</text>
</g>
<g id='class:net.avcompris.binding.dom.impl.DefaultDomBinder'>
<g id='class:net.avcompris.binding.dom.impl.DefaultDomBinder:superclass:net.avcompris.binding.dom.impl.JaxenDomBinder'/>
<rect x='448.5' y='304.5' height='28' width='148'    stroke='#000' fill='#ffc'/>
<line x1='448.5' y1='326.5' stroke='#000' x2='596.5' y2='326.5'/>
<text x='522.5' y='320.5'
 font-size='10pt' text-anchor='middle'
 font-weight='bold'
    font-family='Arial' fill='#000'>DefaultDomBinder</text>
</g>
<g id='class:java.lang.reflect.InvocationHandler'>
<g id='class:java.lang.reflect.InvocationHandler:is-interface'/>
<g id='class:java.lang.reflect.InvocationHandler:is-abstract'/>
<rect x='5.5' y='32.5' height='28' width='237'    stroke='#000' fill='#ffc'/>
<line x1='5.5' y1='54.5' stroke='#000' x2='242.5' y2='54.5'/>
<circle cx='232.0' cy='43.5' r='5.5' stroke='#666'
    stroke-width='1' fill='#fff'/>
<text x='123.5' y='48.5'
 font-size='10pt' text-anchor='middle'
    font-family='Arial' fill='#000'>java.lang.reflect.InvocationHandler</text>
</g>
<g id='class:net.avcompris.binding.impl.AbstractBinderInvocationHandler_3cU_3e'>
<g id='class:net.avcompris.binding.impl.AbstractBinderInvocationHandler_3cU_3e:is-abstract'/>
<g id='class:net.avcompris.binding.impl.AbstractBinderInvocationHandler_3cU_3e:interface:java.lang.reflect.InvocationHandler'/>
<rect x='3.5' y='172.5' height='28' width='240'    stroke='#000' fill='#ffc'/>
<line x1='3.5' y1='194.5' stroke='#000' x2='243.5' y2='194.5'/>
<text x='123.5' y='188.5'
 font-size='10pt' text-anchor='middle'
 font-weight='bold'
    font-style='italic'
    font-family='Arial' fill='#000'>AbstractBinderInvocationHandler&lt;U&gt;</text>
</g>
<g id='class:net.avcompris.binding.dom.impl.AbstractDomBinderInvocationHandler'>
<g id='class:net.avcompris.binding.dom.impl.AbstractDomBinderInvocationHandler:is-abstract'/>
<g id='class:net.avcompris.binding.dom.impl.AbstractDomBinderInvocationHandler:superclass:net.avcompris.binding.impl.AbstractBinderInvocationHandler_3cU_3e'/>
<rect x='1.5' y='242.5' height='28' width='245'    stroke='#000' fill='#ffc'/>
<line x1='1.5' y1='264.5' stroke='#000' x2='246.5' y2='264.5'/>
<text x='123.5' y='258.5'
 font-size='10pt' text-anchor='middle'
 font-weight='bold'
    font-style='italic'
    font-family='Arial' fill='#000'>AbstractDomBinderInvocationHandler</text>
</g>
<g id='class:net.avcompris.binding.dom.impl.JaxpDomBinderInvocationHandler'>
<g id='class:net.avcompris.binding.dom.impl.JaxpDomBinderInvocationHandler:superclass:net.avcompris.binding.dom.impl.AbstractDomBinderInvocationHandler'/>
<rect x='0.5' y='368.5' height='28' width='228'    stroke='#000' fill='#ffc'/>
<line x1='0.5' y1='390.5' stroke='#000' x2='228.5' y2='390.5'/>
<text x='114.5' y='384.5'
 font-size='10pt' text-anchor='middle'
 font-weight='bold'
    font-family='Arial' fill='#000'>JaxpDomBinderInvocationHandler</text>
</g>
<g id='class:net.avcompris.binding.dom.impl.JaxenDomBinderInvocationHandler'>
<g id='class:net.avcompris.binding.dom.impl.JaxenDomBinderInvocationHandler:superclass:net.avcompris.binding.dom.impl.AbstractDomBinderInvocationHandler'/>
<rect x='248.5' y='368.5' height='28' width='234'    stroke='#000' fill='#ffc'/>
<line x1='248.5' y1='390.5' stroke='#000' x2='482.5' y2='390.5'/>
<text x='365.5' y='384.5'
 font-size='10pt' text-anchor='middle'
 font-weight='bold'
    font-family='Arial' fill='#000'>JaxenDomBinderInvocationHandler</text>
</g>
<path stroke='#000' fill='#fff' d='M283.5 45.0 l7 14.5 h-14 Z'/>
<path stroke='#000' fill='#fff' d='M466.5 45.0 l7 14.5 h-14 Z'/>
<path stroke='#000' fill='#fff' d='M466.5 187.0 l7 14.5 h-14 Z'/>
<path stroke='#000' fill='#fff' d='M283.5 113.0 l7 14.5 h-14 Z'/>
<path stroke='#000' fill='#fff' d='M466.5 187.0 l7 14.5 h-14 Z'/>
<path stroke='#000' fill='#fff' d='M283.5 113.0 l7 14.5 h-14 Z'/>
<path stroke='#000' fill='#fff' d='M522.5 265.0 l7 14.5 h-14 Z'/>
<path stroke='#000' fill='#fff' d='M123.5 61.0 l7 14.5 h-14 Z'/>
<path stroke='#000' fill='#fff' d='M123.5 201.0 l7 14.5 h-14 Z'/>
<path stroke='#000' fill='#fff' d='M123.5 271.0 l7 14.5 h-14 Z'/>
<path stroke='#000' fill='#fff' d='M123.5 271.0 l7 14.5 h-14 Z'/>
<path stroke='#000' fill='none' d='M158.5 161.5 l5 10 l5 -10'/>
<path stroke='#000' fill='none' d='M400.5 357.5 l5 10 l5 -10'/>
<path stroke='#000' fill='none' d='M149.5 357.5 l5 10 l5 -10'/>
</svg>
